"clienteId","mensagem","portaId"
"1","O cliente 1 não possui acesso a porta 1","1"
"clienteId","mensagem","portaId"
"1","O cliente 1 não possui acesso a porta 1","1"
"clienteId","mensagem","portaId"
"1","O cliente 1 não possui acesso a porta 1","1"
